EDUC 152. Intro to quantitative research in education: Regression analysis
…
# number of institutions by public/private and level of urbanization
df_ipeds_pop %>% count(control,locale) %>% as_factor()
#> # A tibble: 31 x 3
#>    control locale              n
#>    <fct>   <fct>           <int>
#>  1 Public  City: Large        95
#>  2 Public  City: Midsize      67
#>  3 Public  City: Small        78
#>  4 Public  Suburb: Large      57
#>  5 Public  Suburb: Midsize    17
#>  6 Public  Suburb: Small      16
#>  7 Public  Town: Fringe       13
#>  8 Public  Town: Distant      51
#>  9 Public  Town: Remote       54
#> 10 Public  Rural: Fringe       6
#> # ... with 21 more rows
…
Frequency distribution

for each value of a variable, the number of observations that have that value

Relative frequency distribution

for each value of a variable, the percent of observations that have that value (the number of observations with that value divided by the total number of observations)

We can show frequency distributions (or relative frequency distributions) as a table or as a graph

Frequency distribution of variable tuit_grad_res (for first few values)

df_ipeds_pop %>% count(tuitfee_grad_res)
#> # A tibble: 908 x 2
#>    tuitfee_grad_res     n
#>               <dbl> <int>
#>  1              945     1
#>  2             2320     1
#>  3             3552     3
#>  4             3620     1
#>  5             3710     1
#>  6             3915     1
#>  7             4140     1
#>  8             4146     1
#>  9             4172     1
#> 10             4356     1
#> # ... with 898 more rows
…
# components of z-score
mean(df_generated_pop$norm_dist, na.rm = TRUE)
#> [1] 49.98631
sd(df_generated_pop$norm_dist, na.rm = TRUE)
#> [1] 4.991961

#create new variable z_norm_dist
df_generated_pop <- df_generated_pop %>% mutate(
  z_norm_dist = (norm_dist - mean(norm_dist, na.rm = TRUE))/sd(norm_dist, na.rm = TRUE)
)

#list a few observations
df_generated_pop %>% select(norm_dist,z_norm_dist)
#> # A tibble: 10,000 x 2
#>    norm_dist z_norm_dist
#>        <dbl>       <dbl>
#>  1      43.1     -1.38  
#>  2      50.2      0.0411
#>  3      46.2     -0.762 
#>  4      51.1      0.215 
#>  5      57.1      1.43  
#>  6      53.7      0.748 
#>  7      53.5      0.704 
#>  8      48.9     -0.227 
#>  9      51.0      0.200 
#> 10      56.0      1.21  
#> # ... with 9,990 more rows
…
Question: if the variable has a standard normal distribution, would it be likely to see an observation with a value of 3?

No.because a value of 3 would mean that the observation is three standard deviations greater than the mean. we know that for any variable with a normal distribution, less than 1% of observations have a value that is three standard deviations greater than the mean.

Question: If we have a variable with a roughly normal distribution (i.e., symmetrical), how could we transform it into a variable with a standard normal distribution (i.e., symmetrical with mean=0 and std deviation=1)?

Answer: create new variable that is the z-score associated with each value

This is exactly, what we did above (shown again here)

# create variable that has a standard normal distribution from a variable that has a normal distribution
df_generated_pop %>% mutate(
  z_norm_dist = (norm_dist - mean(norm_dist, na.rm = TRUE))/sd(norm_dist, na.rm = TRUE)
)
#> # A tibble: 10,000 x 5
#>    norm_dist rskew_dist lskew_dist stdnorm_dist z_norm_dist
#>        <dbl>      <dbl>      <dbl>        <dbl>       <dbl>
#>  1      43.1     0.0827      0.917      -1.39       -1.38  
#>  2      50.2     0.294       0.706       0.0383      0.0411
#>  3      46.2     0.156       0.844      -0.763      -0.762 
#>  4      51.1     0.331       0.669       0.212       0.215 
#>  5      57.1     0.651       0.349       1.43        1.43  
#>  6      53.7     0.460       0.540       0.744       0.748 
#>  7      53.5     0.448       0.552       0.700       0.704 
#>  8      48.9     0.242       0.758      -0.229      -0.227 
#>  9      51.0     0.327       0.673       0.197       0.200 
#> 10      56.0     0.588       0.412       1.21        1.21  
#> # ... with 9,990 more rows
…
