EDUC 152. Intro to quantitative research in education: Regression analysis
…
# join
  # start with df_ipeds_pop, keep selected variables; then do do a right_join (i.e., keep obs in y table)
    
  df_score_ipeds <- df_ipeds_pop %>% 
    select(-instnm,-opeid6,-opeid,-c15basic,-region,-locale,-city,-stabbr,-zip) %>% mutate(one=1) %>%
    right_join(y=df_scorecard, by = 'unitid')
     #df_score_ipeds %>% glimpse()
  
  # 52 unitids from scorecard that don't have a match in ipeds
    # could be due to differences in year; decision: drop thiese
    df_score_ipeds %>% filter(is.na(one)) %>% count(unitid) # 52 unitids from scorecard data with missing IPEDS data
#> # A tibble: 52 x 2
#>    unitid     n
#>     <dbl> <int>
#>  1 108232    21
#>  2 127556     5
#>  3 140872     7
#>  4 140988     3
#>  5 150941     6
#>  6 151290     4
#>  7 152381     3
#>  8 152567     6
#>  9 153001     8
#> 10 153126     3
#> #  with 42 more rows
    df_score_ipeds %>% filter(is.na(one)) %>% count(instnm) # 52 unitids from scorecard data with missing IPEDS data
#> # A tibble: 52 x 2
#>    instnm                        n
#>    <chr>                     <int>
#>  1 Academy of Art University    21
#>  2 Augustana University          4
#>  3 Baker College                12
#>  4 Buena Vista University        8
#>  5 Calvin University             7
#>  6 Cedar Crest College           9
#>  7 Cedarville University         4
#>  8 Clarke University             3
#>  9 Coker University              3
#> 10 Colorado Mesa University      5
#> #  with 42 more rows
…
