EDUC 152. Intro to quantitative research in education: Regression analysis
…
# join
  # start with df_ipeds_pop, keep selected variables; then do do a right_join (i.e., keep obs in y table)
    
  df_score_ipeds <- df_ipeds_pop %>% 
    select(-instnm,-opeid6,-opeid,-c15basic,-region,-locale,-city,-stabbr,-zip) %>% mutate(one=1) %>%
    right_join(y=df_scorecard, by = 'unitid')
     #df_score_ipeds %>% glimpse()
  
  # 52 unitids from scorecard that don't have a match in ipeds
    # could be due to differences in year; decision: drop thiese
    df_score_ipeds %>% filter(is.na(one)) %>% count(unitid) # 52 unitids from scorecard data with missing IPEDS data
#> # A tibble: 52 x 2
#>    unitid     n
#>     <dbl> <int>
#>  1 108232    21
#>  2 127556     5
#>  3 140872     7
#>  4 140988     3
#>  5 150941     6
#>  6 151290     4
#>  7 152381     3
#>  8 152567     6
#>  9 153001     8
#> 10 153126     3
#> # ... with 42 more rows
    df_score_ipeds %>% filter(is.na(one)) %>% count(instnm) # 52 unitids from scorecard data with missing IPEDS data
#> # A tibble: 52 x 2
#>    instnm                        n
#>    <chr>                     <int>
#>  1 Academy of Art University    21
#>  2 Augustana University          4
#>  3 Baker College                12
#>  4 Buena Vista University        8
#>  5 Calvin University             7
#>  6 Cedar Crest College           9
#>  7 Cedarville University         4
#>  8 Clarke University             3
#>  9 Coker University              3
#> 10 Colorado Mesa University      5
#> # ... with 42 more rows
…
#> [1] "Control of institution"
#> 
#> $coa_grad_res
#> [1] "graduate, full-time, state resident COA; == tuition + fees + (ug) books/supplies + (ug) off-campus room and board + (ug) off-campus other expenses"
#> 
#> $debt_all_stgp_eval_mean
#> [1] "Average Stafford and Grad PLUS loan debt disbursed at this institution"
#> 
#> $debt_all_stgp_eval_mdn10yrpay
#> [1] "Median estimated monthly payment for Stafford and Grad PLUS loan debt disbursed at this institution"
#> 
#> $earn_mdn_hi_2yr
#> [1] "Median earnings of graduates working and not enrolled 2 years after completing highest credential"
df_socialwork %>% select(instnm,control,coa_grad_res,debt_all_stgp_eval_mean,debt_all_stgp_eval_mdn10yrpay,earn_mdn_hi_2yr)
#> # A tibble: 253 x 6
#>    instnm                                                   control coa_grad_res debt_all_stgp_eval_mean debt_all_stgp_eval_mdn10yrpay earn_mdn_hi_2yr
#>    <chr>                                                  <dbl+lbl>        <dbl>                   <dbl>                         <dbl>           <dbl>
#>  1 Alabama A & M University              1 [Public]                        22886                   51788                           518           37819
#>  2 Alabama State University              1 [Public]                        21606                   38001                           421              NA
#>  3 The University of Alabama             1 [Public]                        28836                   32830                           316           38981
#>  4 Samford University                    2 [Private not-for-profit]        35488                   49278                            NA              NA
#>  5 Troy University                       1 [Public]                        20119                   30072                           238           38289
#>  6 University of Alaska Anchorage        1 [Public]                        32096                   30364                           275           51750
#>  7 Arizona State University-Tempe        1 [Public]                        26533                   45258                           421           46118
#>  8 University of Arkansas at Little Rock 1 [Public]                        25618                   41114                           443           47877
#>  9 University of Arkansas                1 [Public]                        23832                   27713                           277           44595
#> 10 Arkansas State University-Main Campus 1 [Public]                        21167                   30749                           278           45383
#> # ... with 243 more rows
…
